%YAML 1.1
%TAG !u! tag:unity3d.com,2011:
--- !u!21 &2100000
Material:
  serializedVersion: 6
  m_ObjectHideFlags: 0
  m_PrefabParentObject: {fileID: 0}
  m_PrefabInternal: {fileID: 0}
  m_Name: RoomWireFame
  m_Shader: {fileID: 4800000, guid: ee0d9c664583a344d86bcb59ca6c166d, type: 3}
  m_ShaderKeywords: _FORCEPERPIXEL_ON _GLOSSYREFLECTIONS_OFF _SHADE4_ON _SPECULARHIGHLIGHTS_OFF
    _USEAMBIENT_ON _USEDIFFUSE_ON _USEEMISSIONMAP_ON _USEVERTEXCOLOR_ON _USEWIREFRAME_ON
  m_LightmapFlags: 4
  m_EnableInstancingVariants: 1
  m_DoubleSidedGI: 0
  m_CustomRenderQueue: -1
  stringTagMap: {}
  disabledShaderPasses: []
  m_SavedProperties:
    serializedVersion: 3
    m_TexEnvs:
    - _BumpMap:
        m_Texture: {fileID: 0}
        m_Scale: {x: 1, y: 1}
        m_Offset: {x: 0, y: 0}
    - _CubeMap:
        m_Texture: {fileID: 0}
        m_Scale: {x: 1, y: 1}
        m_Offset: {x: 0, y: 0}
    - _DetailAlbedoMap:
        m_Texture: {fileID: 0}
        m_Scale: {x: 0.1, y: 0.1}
        m_Offset: {x: 0, y: 0}
    - _DetailMask:
        m_Texture: {fileID: 0}
        m_Scale: {x: 1, y: 1}
        m_Offset: {x: 0, y: 0}
    - _DetailNormalMap:
        m_Texture: {fileID: 0}
        m_Scale: {x: 1, y: 1}
        m_Offset: {x: 0, y: 0}
    - _EmissionMap:
        m_Texture: {fileID: 0}
        m_Scale: {x: 1, y: 1}
        m_Offset: {x: 0, y: 0}
    - _EmissionTex:
        m_Texture: {fileID: 0}
        m_Scale: {x: 1, y: 1}
        m_Offset: {x: 0, y: 0}
    - _GlossMap:
        m_Texture: {fileID: 0}
        m_Scale: {x: 1, y: 1}
        m_Offset: {x: 0, y: 0}
    - _MainTex:
        m_Texture: {fileID: 0}
        m_Scale: {x: 0, y: 1}
        m_Offset: {x: 0, y: 0}
    - _MainTex1:
        m_Texture: {fileID: 0}
        m_Scale: {x: 1, y: 1}
        m_Offset: {x: 0, y: 0}
    - _MetallicGlossMap:
        m_Texture: {fileID: 0}
        m_Scale: {x: 1, y: 1}
        m_Offset: {x: 0, y: 0}
    - _OcclusionMap:
        m_Texture: {fileID: 0}
        m_Scale: {x: 1, y: 1}
        m_Offset: {x: 0, y: 0}
    - _ParallaxMap:
        m_Texture: {fileID: 0}
        m_Scale: {x: 1, y: 1}
        m_Offset: {x: 0, y: 0}
    - _SpecGlossMap:
        m_Texture: {fileID: 0}
        m_Scale: {x: 1, y: 1}
        m_Offset: {x: 0, y: 0}
    - _SpecMap:
        m_Texture: {fileID: 0}
        m_Scale: {x: 1, y: 1}
        m_Offset: {x: 0, y: 0}
    - _SpecularMap:
        m_Texture: {fileID: 0}
        m_Scale: {x: 1, y: 1}
        m_Offset: {x: 0, y: 0}
    m_Floats:
    - _AlphaTest: 0
    - _Ambient: 0.4
    - _BlendOp: 0
    - _BumpScale: 1
    - _CalibrationSpaceReflections: 0
    - _CameraIntensity: 0.1
    - _ColorWriteMask: 15
    - _Cull: 2
    - _Cutoff: 0.5
    - _DetailNormalMapScale: 1
    - _DstBlend: 0
    - _Falloff_Dst_Max: 5
    - _Falloff_Dst_Min: 1
    - _Falloff_Scale: 0.75
    - _ForcePerPixel: 1
    - _Gloss: 1
    - _GlossMapScale: 1
    - _Glossiness: 0
    - _GlossyReflections: 0
    - _GridSpacing: 0.08
    - _GridStep: 0.1
    - _GridThickness: 0.05
    - _GridWidth: 2
    - _Highlight: 0
    - _LightIntensity: 0.4
    - _Metallic: 0.25
    - _Mode: 0
    - _OcclusionStrength: 1
    - _Parallax: 0.02
    - _PulseWidth: 20
    - _Radius: 0
    - _ReflectionScale: 2
    - _RimPower: 0.7
    - _Shade4: 1
    - _Shininess: 3
    - _SmoothnessTextureChannel: 0
    - _Specular: 10
    - _SpecularHighlights: 0
    - _SrcBlend: 1
    - _UVSec: 0
    - _UseAmbient: 1
    - _UseBumpMap: 0
    - _UseColor: 0
    - _UseDiffuse: 1
    - _UseEmissionColor: 0
    - _UseEmissionMap: 0
    - _UseEmissionTex: 0
    - _UseGlossMap: 0
    - _UseMainColor: 0
    - _UseMainTex: 1
    - _UseOcclusionMap: 0
    - _UseReflections: 0
    - _UseRimLighting: 0
    - _UseSpecularMap: 0
    - _UseVertexColor: 1
    - _UseWireframe: 1
    - _WireThickness: 300
    - _WireframeFill: 0.1
    - _ZTest: 4
    - _ZWrite: 1
    m_Colors:
    - _BaseColor: {r: 0, g: 0, b: 0, a: 1}
    - _BaseColour: {r: 1, g: 0.1397059, b: 0.1397059, a: 0}
    - _Center: {r: 0, g: -3, b: 0, a: -1}
    - _Color: {r: 0, g: 0, b: 0, a: 1}
    - _EmissionColor: {r: 1, g: 1, b: 1, a: 1}
    - _GridColour: {r: 1, g: 1, b: 1, a: 1}
    - _HighlightColor: {r: 1, g: 1, b: 1, a: 1}
    - _LightDir: {r: 0.3, g: 0.8, b: -0.6, a: 1}
    - _PulseColor: {r: 0.922, g: 0.61120003, b: 0.14499998, a: 1}
    - _RimColor: {r: 1, g: 1, b: 1, a: 1}
    - _SpecColor: {r: 0.5, g: 0.5, b: 0.5, a: 1}
    - _Specular: {r: 0.08, g: 0.075, b: 0.065, a: 1}
    - _TextureScaleOffset: {r: 1, g: 1, b: 0, a: 0}
    - _WireColor: {r: 0, g: 1, b: 0.25517225, a: 1}
    - _WireframeColor: {r: 0.5, g: 0.5, b: 0.5, a: 1}
